%TF.GenerationSoftware,KiCad,Pcbnew,5.1.10-88a1d61d58~88~ubuntu20.04.1*%
%TF.CreationDate,2021-10-22T14:04:49-04:00*%
%TF.ProjectId,drv8436_breakout,64727638-3433-4365-9f62-7265616b6f75,rev?*%
%TF.SameCoordinates,Original*%
%TF.FileFunction,Paste,Top*%
%TF.FilePolarity,Positive*%
%FSLAX46Y46*%
G04 Gerber Fmt 4.6, Leading zero omitted, Abs format (unit mm)*
G04 Created by KiCad (PCBNEW 5.1.10-88a1d61d58~88~ubuntu20.04.1) date 2021-10-22 14:04:49*
%MOMM*%
%LPD*%
G01*
G04 APERTURE LIST*
%ADD10C,0.100000*%
G04 APERTURE END LIST*
%TO.C,C1*%
G36*
G01*
X103260000Y-63080000D02*
X103260000Y-63420000D01*
G75*
G02*
X103120000Y-63560000I-140000J0D01*
G01*
X102840000Y-63560000D01*
G75*
G02*
X102700000Y-63420000I0J140000D01*
G01*
X102700000Y-63080000D01*
G75*
G02*
X102840000Y-62940000I140000J0D01*
G01*
X103120000Y-62940000D01*
G75*
G02*
X103260000Y-63080000I0J-140000D01*
G01*
G37*
G36*
G01*
X102300000Y-63080000D02*
X102300000Y-63420000D01*
G75*
G02*
X102160000Y-63560000I-140000J0D01*
G01*
X101880000Y-63560000D01*
G75*
G02*
X101740000Y-63420000I0J140000D01*
G01*
X101740000Y-63080000D01*
G75*
G02*
X101880000Y-62940000I140000J0D01*
G01*
X102160000Y-62940000D01*
G75*
G02*
X102300000Y-63080000I0J-140000D01*
G01*
G37*
%TD*%
%TO.C,C2*%
G36*
G01*
X102300000Y-56080000D02*
X102300000Y-56420000D01*
G75*
G02*
X102160000Y-56560000I-140000J0D01*
G01*
X101880000Y-56560000D01*
G75*
G02*
X101740000Y-56420000I0J140000D01*
G01*
X101740000Y-56080000D01*
G75*
G02*
X101880000Y-55940000I140000J0D01*
G01*
X102160000Y-55940000D01*
G75*
G02*
X102300000Y-56080000I0J-140000D01*
G01*
G37*
G36*
G01*
X103260000Y-56080000D02*
X103260000Y-56420000D01*
G75*
G02*
X103120000Y-56560000I-140000J0D01*
G01*
X102840000Y-56560000D01*
G75*
G02*
X102700000Y-56420000I0J140000D01*
G01*
X102700000Y-56080000D01*
G75*
G02*
X102840000Y-55940000I140000J0D01*
G01*
X103120000Y-55940000D01*
G75*
G02*
X103260000Y-56080000I0J-140000D01*
G01*
G37*
%TD*%
%TO.C,C3*%
G36*
G01*
X105010000Y-56080000D02*
X105010000Y-56420000D01*
G75*
G02*
X104870000Y-56560000I-140000J0D01*
G01*
X104590000Y-56560000D01*
G75*
G02*
X104450000Y-56420000I0J140000D01*
G01*
X104450000Y-56080000D01*
G75*
G02*
X104590000Y-55940000I140000J0D01*
G01*
X104870000Y-55940000D01*
G75*
G02*
X105010000Y-56080000I0J-140000D01*
G01*
G37*
G36*
G01*
X104050000Y-56080000D02*
X104050000Y-56420000D01*
G75*
G02*
X103910000Y-56560000I-140000J0D01*
G01*
X103630000Y-56560000D01*
G75*
G02*
X103490000Y-56420000I0J140000D01*
G01*
X103490000Y-56080000D01*
G75*
G02*
X103630000Y-55940000I140000J0D01*
G01*
X103910000Y-55940000D01*
G75*
G02*
X104050000Y-56080000I0J-140000D01*
G01*
G37*
%TD*%
%TO.C,C4*%
G36*
G01*
X105240000Y-56420000D02*
X105240000Y-56080000D01*
G75*
G02*
X105380000Y-55940000I140000J0D01*
G01*
X105660000Y-55940000D01*
G75*
G02*
X105800000Y-56080000I0J-140000D01*
G01*
X105800000Y-56420000D01*
G75*
G02*
X105660000Y-56560000I-140000J0D01*
G01*
X105380000Y-56560000D01*
G75*
G02*
X105240000Y-56420000I0J140000D01*
G01*
G37*
G36*
G01*
X106200000Y-56420000D02*
X106200000Y-56080000D01*
G75*
G02*
X106340000Y-55940000I140000J0D01*
G01*
X106620000Y-55940000D01*
G75*
G02*
X106760000Y-56080000I0J-140000D01*
G01*
X106760000Y-56420000D01*
G75*
G02*
X106620000Y-56560000I-140000J0D01*
G01*
X106340000Y-56560000D01*
G75*
G02*
X106200000Y-56420000I0J140000D01*
G01*
G37*
%TD*%
%TO.C,C5*%
G36*
G01*
X104050000Y-63080000D02*
X104050000Y-63420000D01*
G75*
G02*
X103910000Y-63560000I-140000J0D01*
G01*
X103630000Y-63560000D01*
G75*
G02*
X103490000Y-63420000I0J140000D01*
G01*
X103490000Y-63080000D01*
G75*
G02*
X103630000Y-62940000I140000J0D01*
G01*
X103910000Y-62940000D01*
G75*
G02*
X104050000Y-63080000I0J-140000D01*
G01*
G37*
G36*
G01*
X105010000Y-63080000D02*
X105010000Y-63420000D01*
G75*
G02*
X104870000Y-63560000I-140000J0D01*
G01*
X104590000Y-63560000D01*
G75*
G02*
X104450000Y-63420000I0J140000D01*
G01*
X104450000Y-63080000D01*
G75*
G02*
X104590000Y-62940000I140000J0D01*
G01*
X104870000Y-62940000D01*
G75*
G02*
X105010000Y-63080000I0J-140000D01*
G01*
G37*
%TD*%
%TO.C,R1*%
G36*
G01*
X105220000Y-63435000D02*
X105220000Y-63065000D01*
G75*
G02*
X105355000Y-62930000I135000J0D01*
G01*
X105625000Y-62930000D01*
G75*
G02*
X105760000Y-63065000I0J-135000D01*
G01*
X105760000Y-63435000D01*
G75*
G02*
X105625000Y-63570000I-135000J0D01*
G01*
X105355000Y-63570000D01*
G75*
G02*
X105220000Y-63435000I0J135000D01*
G01*
G37*
G36*
G01*
X106240000Y-63435000D02*
X106240000Y-63065000D01*
G75*
G02*
X106375000Y-62930000I135000J0D01*
G01*
X106645000Y-62930000D01*
G75*
G02*
X106780000Y-63065000I0J-135000D01*
G01*
X106780000Y-63435000D01*
G75*
G02*
X106645000Y-63570000I-135000J0D01*
G01*
X106375000Y-63570000D01*
G75*
G02*
X106240000Y-63435000I0J135000D01*
G01*
G37*
%TD*%
%TO.C,U1*%
G36*
G01*
X101875000Y-58562500D02*
X101875000Y-58437500D01*
G75*
G02*
X101937500Y-58375000I62500J0D01*
G01*
X102687500Y-58375000D01*
G75*
G02*
X102750000Y-58437500I0J-62500D01*
G01*
X102750000Y-58562500D01*
G75*
G02*
X102687500Y-58625000I-62500J0D01*
G01*
X101937500Y-58625000D01*
G75*
G02*
X101875000Y-58562500I0J62500D01*
G01*
G37*
G36*
G01*
X101875000Y-59062500D02*
X101875000Y-58937500D01*
G75*
G02*
X101937500Y-58875000I62500J0D01*
G01*
X102687500Y-58875000D01*
G75*
G02*
X102750000Y-58937500I0J-62500D01*
G01*
X102750000Y-59062500D01*
G75*
G02*
X102687500Y-59125000I-62500J0D01*
G01*
X101937500Y-59125000D01*
G75*
G02*
X101875000Y-59062500I0J62500D01*
G01*
G37*
G36*
G01*
X101875000Y-59562500D02*
X101875000Y-59437500D01*
G75*
G02*
X101937500Y-59375000I62500J0D01*
G01*
X102687500Y-59375000D01*
G75*
G02*
X102750000Y-59437500I0J-62500D01*
G01*
X102750000Y-59562500D01*
G75*
G02*
X102687500Y-59625000I-62500J0D01*
G01*
X101937500Y-59625000D01*
G75*
G02*
X101875000Y-59562500I0J62500D01*
G01*
G37*
G36*
G01*
X101875000Y-60062500D02*
X101875000Y-59937500D01*
G75*
G02*
X101937500Y-59875000I62500J0D01*
G01*
X102687500Y-59875000D01*
G75*
G02*
X102750000Y-59937500I0J-62500D01*
G01*
X102750000Y-60062500D01*
G75*
G02*
X102687500Y-60125000I-62500J0D01*
G01*
X101937500Y-60125000D01*
G75*
G02*
X101875000Y-60062500I0J62500D01*
G01*
G37*
G36*
G01*
X101875000Y-60562500D02*
X101875000Y-60437500D01*
G75*
G02*
X101937500Y-60375000I62500J0D01*
G01*
X102687500Y-60375000D01*
G75*
G02*
X102750000Y-60437500I0J-62500D01*
G01*
X102750000Y-60562500D01*
G75*
G02*
X102687500Y-60625000I-62500J0D01*
G01*
X101937500Y-60625000D01*
G75*
G02*
X101875000Y-60562500I0J62500D01*
G01*
G37*
G36*
G01*
X101875000Y-61062500D02*
X101875000Y-60937500D01*
G75*
G02*
X101937500Y-60875000I62500J0D01*
G01*
X102687500Y-60875000D01*
G75*
G02*
X102750000Y-60937500I0J-62500D01*
G01*
X102750000Y-61062500D01*
G75*
G02*
X102687500Y-61125000I-62500J0D01*
G01*
X101937500Y-61125000D01*
G75*
G02*
X101875000Y-61062500I0J62500D01*
G01*
G37*
G36*
G01*
X102875000Y-62062500D02*
X102875000Y-61312500D01*
G75*
G02*
X102937500Y-61250000I62500J0D01*
G01*
X103062500Y-61250000D01*
G75*
G02*
X103125000Y-61312500I0J-62500D01*
G01*
X103125000Y-62062500D01*
G75*
G02*
X103062500Y-62125000I-62500J0D01*
G01*
X102937500Y-62125000D01*
G75*
G02*
X102875000Y-62062500I0J62500D01*
G01*
G37*
G36*
G01*
X103375000Y-62062500D02*
X103375000Y-61312500D01*
G75*
G02*
X103437500Y-61250000I62500J0D01*
G01*
X103562500Y-61250000D01*
G75*
G02*
X103625000Y-61312500I0J-62500D01*
G01*
X103625000Y-62062500D01*
G75*
G02*
X103562500Y-62125000I-62500J0D01*
G01*
X103437500Y-62125000D01*
G75*
G02*
X103375000Y-62062500I0J62500D01*
G01*
G37*
G36*
G01*
X103875000Y-62062500D02*
X103875000Y-61312500D01*
G75*
G02*
X103937500Y-61250000I62500J0D01*
G01*
X104062500Y-61250000D01*
G75*
G02*
X104125000Y-61312500I0J-62500D01*
G01*
X104125000Y-62062500D01*
G75*
G02*
X104062500Y-62125000I-62500J0D01*
G01*
X103937500Y-62125000D01*
G75*
G02*
X103875000Y-62062500I0J62500D01*
G01*
G37*
G36*
G01*
X104375000Y-62062500D02*
X104375000Y-61312500D01*
G75*
G02*
X104437500Y-61250000I62500J0D01*
G01*
X104562500Y-61250000D01*
G75*
G02*
X104625000Y-61312500I0J-62500D01*
G01*
X104625000Y-62062500D01*
G75*
G02*
X104562500Y-62125000I-62500J0D01*
G01*
X104437500Y-62125000D01*
G75*
G02*
X104375000Y-62062500I0J62500D01*
G01*
G37*
G36*
G01*
X104875000Y-62062500D02*
X104875000Y-61312500D01*
G75*
G02*
X104937500Y-61250000I62500J0D01*
G01*
X105062500Y-61250000D01*
G75*
G02*
X105125000Y-61312500I0J-62500D01*
G01*
X105125000Y-62062500D01*
G75*
G02*
X105062500Y-62125000I-62500J0D01*
G01*
X104937500Y-62125000D01*
G75*
G02*
X104875000Y-62062500I0J62500D01*
G01*
G37*
G36*
G01*
X105375000Y-62062500D02*
X105375000Y-61312500D01*
G75*
G02*
X105437500Y-61250000I62500J0D01*
G01*
X105562500Y-61250000D01*
G75*
G02*
X105625000Y-61312500I0J-62500D01*
G01*
X105625000Y-62062500D01*
G75*
G02*
X105562500Y-62125000I-62500J0D01*
G01*
X105437500Y-62125000D01*
G75*
G02*
X105375000Y-62062500I0J62500D01*
G01*
G37*
G36*
G01*
X105750000Y-61062500D02*
X105750000Y-60937500D01*
G75*
G02*
X105812500Y-60875000I62500J0D01*
G01*
X106562500Y-60875000D01*
G75*
G02*
X106625000Y-60937500I0J-62500D01*
G01*
X106625000Y-61062500D01*
G75*
G02*
X106562500Y-61125000I-62500J0D01*
G01*
X105812500Y-61125000D01*
G75*
G02*
X105750000Y-61062500I0J62500D01*
G01*
G37*
G36*
G01*
X105750000Y-60562500D02*
X105750000Y-60437500D01*
G75*
G02*
X105812500Y-60375000I62500J0D01*
G01*
X106562500Y-60375000D01*
G75*
G02*
X106625000Y-60437500I0J-62500D01*
G01*
X106625000Y-60562500D01*
G75*
G02*
X106562500Y-60625000I-62500J0D01*
G01*
X105812500Y-60625000D01*
G75*
G02*
X105750000Y-60562500I0J62500D01*
G01*
G37*
G36*
G01*
X105750000Y-60062500D02*
X105750000Y-59937500D01*
G75*
G02*
X105812500Y-59875000I62500J0D01*
G01*
X106562500Y-59875000D01*
G75*
G02*
X106625000Y-59937500I0J-62500D01*
G01*
X106625000Y-60062500D01*
G75*
G02*
X106562500Y-60125000I-62500J0D01*
G01*
X105812500Y-60125000D01*
G75*
G02*
X105750000Y-60062500I0J62500D01*
G01*
G37*
G36*
G01*
X105750000Y-59562500D02*
X105750000Y-59437500D01*
G75*
G02*
X105812500Y-59375000I62500J0D01*
G01*
X106562500Y-59375000D01*
G75*
G02*
X106625000Y-59437500I0J-62500D01*
G01*
X106625000Y-59562500D01*
G75*
G02*
X106562500Y-59625000I-62500J0D01*
G01*
X105812500Y-59625000D01*
G75*
G02*
X105750000Y-59562500I0J62500D01*
G01*
G37*
G36*
G01*
X105750000Y-59062500D02*
X105750000Y-58937500D01*
G75*
G02*
X105812500Y-58875000I62500J0D01*
G01*
X106562500Y-58875000D01*
G75*
G02*
X106625000Y-58937500I0J-62500D01*
G01*
X106625000Y-59062500D01*
G75*
G02*
X106562500Y-59125000I-62500J0D01*
G01*
X105812500Y-59125000D01*
G75*
G02*
X105750000Y-59062500I0J62500D01*
G01*
G37*
G36*
G01*
X105750000Y-58562500D02*
X105750000Y-58437500D01*
G75*
G02*
X105812500Y-58375000I62500J0D01*
G01*
X106562500Y-58375000D01*
G75*
G02*
X106625000Y-58437500I0J-62500D01*
G01*
X106625000Y-58562500D01*
G75*
G02*
X106562500Y-58625000I-62500J0D01*
G01*
X105812500Y-58625000D01*
G75*
G02*
X105750000Y-58562500I0J62500D01*
G01*
G37*
G36*
G01*
X105375000Y-58187500D02*
X105375000Y-57437500D01*
G75*
G02*
X105437500Y-57375000I62500J0D01*
G01*
X105562500Y-57375000D01*
G75*
G02*
X105625000Y-57437500I0J-62500D01*
G01*
X105625000Y-58187500D01*
G75*
G02*
X105562500Y-58250000I-62500J0D01*
G01*
X105437500Y-58250000D01*
G75*
G02*
X105375000Y-58187500I0J62500D01*
G01*
G37*
G36*
G01*
X104875000Y-58187500D02*
X104875000Y-57437500D01*
G75*
G02*
X104937500Y-57375000I62500J0D01*
G01*
X105062500Y-57375000D01*
G75*
G02*
X105125000Y-57437500I0J-62500D01*
G01*
X105125000Y-58187500D01*
G75*
G02*
X105062500Y-58250000I-62500J0D01*
G01*
X104937500Y-58250000D01*
G75*
G02*
X104875000Y-58187500I0J62500D01*
G01*
G37*
G36*
G01*
X104375000Y-58187500D02*
X104375000Y-57437500D01*
G75*
G02*
X104437500Y-57375000I62500J0D01*
G01*
X104562500Y-57375000D01*
G75*
G02*
X104625000Y-57437500I0J-62500D01*
G01*
X104625000Y-58187500D01*
G75*
G02*
X104562500Y-58250000I-62500J0D01*
G01*
X104437500Y-58250000D01*
G75*
G02*
X104375000Y-58187500I0J62500D01*
G01*
G37*
G36*
G01*
X103875000Y-58187500D02*
X103875000Y-57437500D01*
G75*
G02*
X103937500Y-57375000I62500J0D01*
G01*
X104062500Y-57375000D01*
G75*
G02*
X104125000Y-57437500I0J-62500D01*
G01*
X104125000Y-58187500D01*
G75*
G02*
X104062500Y-58250000I-62500J0D01*
G01*
X103937500Y-58250000D01*
G75*
G02*
X103875000Y-58187500I0J62500D01*
G01*
G37*
G36*
G01*
X103375000Y-58187500D02*
X103375000Y-57437500D01*
G75*
G02*
X103437500Y-57375000I62500J0D01*
G01*
X103562500Y-57375000D01*
G75*
G02*
X103625000Y-57437500I0J-62500D01*
G01*
X103625000Y-58187500D01*
G75*
G02*
X103562500Y-58250000I-62500J0D01*
G01*
X103437500Y-58250000D01*
G75*
G02*
X103375000Y-58187500I0J62500D01*
G01*
G37*
G36*
G01*
X102875000Y-58187500D02*
X102875000Y-57437500D01*
G75*
G02*
X102937500Y-57375000I62500J0D01*
G01*
X103062500Y-57375000D01*
G75*
G02*
X103125000Y-57437500I0J-62500D01*
G01*
X103125000Y-58187500D01*
G75*
G02*
X103062500Y-58250000I-62500J0D01*
G01*
X102937500Y-58250000D01*
G75*
G02*
X102875000Y-58187500I0J62500D01*
G01*
G37*
D10*
G36*
X103971127Y-58789339D02*
G01*
X103998965Y-58797784D01*
X104024622Y-58811498D01*
X104047109Y-58829953D01*
X104170047Y-58952891D01*
X104188502Y-58975378D01*
X104202216Y-59001035D01*
X104210661Y-59028873D01*
X104213512Y-59057824D01*
X104213512Y-59442176D01*
X104210661Y-59471127D01*
X104202216Y-59498965D01*
X104188502Y-59524622D01*
X104170047Y-59547109D01*
X104047109Y-59670047D01*
X104024622Y-59688502D01*
X103998965Y-59702216D01*
X103971127Y-59710661D01*
X103942176Y-59713512D01*
X103557824Y-59713512D01*
X103528873Y-59710661D01*
X103501035Y-59702216D01*
X103475378Y-59688502D01*
X103452891Y-59670047D01*
X103329953Y-59547109D01*
X103311498Y-59524622D01*
X103297784Y-59498965D01*
X103289339Y-59471127D01*
X103286488Y-59442176D01*
X103286488Y-59057824D01*
X103289339Y-59028873D01*
X103297784Y-59001035D01*
X103311498Y-58975378D01*
X103329953Y-58952891D01*
X103452891Y-58829953D01*
X103475378Y-58811498D01*
X103501035Y-58797784D01*
X103528873Y-58789339D01*
X103557824Y-58786488D01*
X103942176Y-58786488D01*
X103971127Y-58789339D01*
G37*
G36*
X103971127Y-59789339D02*
G01*
X103998965Y-59797784D01*
X104024622Y-59811498D01*
X104047109Y-59829953D01*
X104170047Y-59952891D01*
X104188502Y-59975378D01*
X104202216Y-60001035D01*
X104210661Y-60028873D01*
X104213512Y-60057824D01*
X104213512Y-60442176D01*
X104210661Y-60471127D01*
X104202216Y-60498965D01*
X104188502Y-60524622D01*
X104170047Y-60547109D01*
X104047109Y-60670047D01*
X104024622Y-60688502D01*
X103998965Y-60702216D01*
X103971127Y-60710661D01*
X103942176Y-60713512D01*
X103557824Y-60713512D01*
X103528873Y-60710661D01*
X103501035Y-60702216D01*
X103475378Y-60688502D01*
X103452891Y-60670047D01*
X103329953Y-60547109D01*
X103311498Y-60524622D01*
X103297784Y-60498965D01*
X103289339Y-60471127D01*
X103286488Y-60442176D01*
X103286488Y-60057824D01*
X103289339Y-60028873D01*
X103297784Y-60001035D01*
X103311498Y-59975378D01*
X103329953Y-59952891D01*
X103452891Y-59829953D01*
X103475378Y-59811498D01*
X103501035Y-59797784D01*
X103528873Y-59789339D01*
X103557824Y-59786488D01*
X103942176Y-59786488D01*
X103971127Y-59789339D01*
G37*
G36*
X104971127Y-58789339D02*
G01*
X104998965Y-58797784D01*
X105024622Y-58811498D01*
X105047109Y-58829953D01*
X105170047Y-58952891D01*
X105188502Y-58975378D01*
X105202216Y-59001035D01*
X105210661Y-59028873D01*
X105213512Y-59057824D01*
X105213512Y-59442176D01*
X105210661Y-59471127D01*
X105202216Y-59498965D01*
X105188502Y-59524622D01*
X105170047Y-59547109D01*
X105047109Y-59670047D01*
X105024622Y-59688502D01*
X104998965Y-59702216D01*
X104971127Y-59710661D01*
X104942176Y-59713512D01*
X104557824Y-59713512D01*
X104528873Y-59710661D01*
X104501035Y-59702216D01*
X104475378Y-59688502D01*
X104452891Y-59670047D01*
X104329953Y-59547109D01*
X104311498Y-59524622D01*
X104297784Y-59498965D01*
X104289339Y-59471127D01*
X104286488Y-59442176D01*
X104286488Y-59057824D01*
X104289339Y-59028873D01*
X104297784Y-59001035D01*
X104311498Y-58975378D01*
X104329953Y-58952891D01*
X104452891Y-58829953D01*
X104475378Y-58811498D01*
X104501035Y-58797784D01*
X104528873Y-58789339D01*
X104557824Y-58786488D01*
X104942176Y-58786488D01*
X104971127Y-58789339D01*
G37*
G36*
X104971127Y-59789339D02*
G01*
X104998965Y-59797784D01*
X105024622Y-59811498D01*
X105047109Y-59829953D01*
X105170047Y-59952891D01*
X105188502Y-59975378D01*
X105202216Y-60001035D01*
X105210661Y-60028873D01*
X105213512Y-60057824D01*
X105213512Y-60442176D01*
X105210661Y-60471127D01*
X105202216Y-60498965D01*
X105188502Y-60524622D01*
X105170047Y-60547109D01*
X105047109Y-60670047D01*
X105024622Y-60688502D01*
X104998965Y-60702216D01*
X104971127Y-60710661D01*
X104942176Y-60713512D01*
X104557824Y-60713512D01*
X104528873Y-60710661D01*
X104501035Y-60702216D01*
X104475378Y-60688502D01*
X104452891Y-60670047D01*
X104329953Y-60547109D01*
X104311498Y-60524622D01*
X104297784Y-60498965D01*
X104289339Y-60471127D01*
X104286488Y-60442176D01*
X104286488Y-60057824D01*
X104289339Y-60028873D01*
X104297784Y-60001035D01*
X104311498Y-59975378D01*
X104329953Y-59952891D01*
X104452891Y-59829953D01*
X104475378Y-59811498D01*
X104501035Y-59797784D01*
X104528873Y-59789339D01*
X104557824Y-59786488D01*
X104942176Y-59786488D01*
X104971127Y-59789339D01*
G37*
%TD*%
M02*
